{
  "@id": "cycle",
  "@type": "Cycle",
  "startDate": "2010",
  "endDate": "2019",
  "cycleDuration": 365,
  "functionalUnit": "1 ha",
  "startDateDefinition": "start of year",
  "defaultMethodClassification": "modelled",
  "defaultMethodClassificationDescription": "aggregated data",
  "site": {
    "@id": "site",
    "@type": "Site"
  },
  "completeness": {
    "@type": "Completeness",
    "electricityFuel": true,
    "material": true,
    "transport": false,
    "fertiliser": true,
    "water": true,
    "animalFeed": true,
    "cropResidue": true,
    "excreta": true,
    "waste": false,
    "seed": true,
    "pesticideVeterinaryDrug": true,
    "liveAnimalInput": true,
    "operation": true,
    "soilAmendment": false,
    "product": true,
    "otherChemical": true,
    "freshForage": true,
    "ingredient": true,
    "animalPopulation": false
  },
  "dataPrivate": true
}
