{
  "@id": "sugarcaneStalk-india-2010-2019",
  "@type": "Cycle",
  "startDate": "2010",
  "endDate": "2019",
  "functionalUnit": "1 ha",
  "startDateDefinition": "start of year",
  "defaultMethodClassification": "modelled",
  "defaultMethodClassificationDescription": "aggregated data",
  "site": {
    "@id": "sugarcaneStalk-india-2010-2019",
    "@type": "Site",
    "country": {
      "@type": "Term",
      "termType": "region",
      "name": "India",
      "@id": "GADM-IND"
    }
  },
  "aggregated": true,
  "completeness": {
    "electricityFuel": true,
    "material": true,
    "transport": false,
    "fertiliser": true,
    "water": false,
    "animalFeed": false,
    "cropResidue": true,
    "excreta": true,
    "waste": false,
    "@type": "Completeness",
    "seed": true,
    "pesticideVeterinaryDrug": false,
    "liveAnimalInput": false,
    "operation": true,
    "soilAmendment": false,
    "product": false,
    "otherChemical": false,
    "freshForage": false,
    "ingredient": false,
    "animalPopulation": false
  },
  "products": [
    {
      "term": {
        "@type": "Term",
        "termType": "crop",
        "name": "Sugarcane, stalk",
        "units": "kg",
        "@id": "sugarcaneStalk"
      },
      "primary": true,
      "value": [
        88170.66791312498
      ],
      "statsDefinition": "cycles",
      "aggregated": [
        "term",
        "statsDefinition",
        "value",
        "min",
        "max",
        "observations"
      ],
      "aggregatedVersion": [
        "0.15.0",
        "0.15.0",
        "0.15.0",
        "0.15.0",
        "0.15.0",
        "0.15.0"
      ],
      "min": [
        25000
      ],
      "max": [
        214285.7143
      ],
      "observations": [
        64
      ],
      "economicValueShare": 94.39611757165095,
      "@type": "Product"
    },
    {
      "term": {
        "@type": "Term",
        "name": "Above ground crop residue, total",
        "termType": "cropResidue",
        "@id": "aboveGroundCropResidueTotal",
        "units": "kg dry matter"
      },
      "primary": false,
      "value": [
        8156.885427440937
      ],
      "statsDefinition": "cycles",
      "aggregated": [
        "term",
        "statsDefinition",
        "value",
        "min",
        "max",
        "observations"
      ],
      "aggregatedVersion": [
        "0.15.0",
        "0.15.0",
        "0.15.0",
        "0.15.0",
        "0.15.0",
        "0.15.0"
      ],
      "min": [
        3387.5
      ],
      "max": [
        17678.57142965
      ],
      "observations": [
        64
      ],
      "@type": "Product"
    },
    {
      "term": {
        "@type": "Term",
        "name": "Below ground crop residue",
        "termType": "cropResidue",
        "@id": "belowGroundCropResidue",
        "units": "kg dry matter"
      },
      "primary": false,
      "value": [
        9433.064986360589
      ],
      "statsDefinition": "cycles",
      "aggregated": [
        "term",
        "statsDefinition",
        "value",
        "min",
        "max",
        "observations"
      ],
      "aggregatedVersion": [
        "0.15.0",
        "0.15.0",
        "0.15.0",
        "0.15.0",
        "0.15.0",
        "0.15.0"
      ],
      "min": [
        2966.101694915253
      ],
      "max": [
        22343.825667322024
      ],
      "observations": [
        64
      ],
      "@type": "Product"
    },
    {
      "term": {
        "@type": "Term",
        "name": "Above ground crop residue, removed",
        "termType": "cropResidue",
        "@id": "aboveGroundCropResidueRemoved",
        "units": "kg dry matter"
      },
      "primary": false,
      "value": [
        0
      ],
      "statsDefinition": "cycles",
      "aggregated": [
        "term",
        "statsDefinition",
        "value",
        "min",
        "max",
        "observations"
      ],
      "aggregatedVersion": [
        "0.15.0",
        "0.15.0",
        "0.15.0",
        "0.15.0",
        "0.15.0",
        "0.15.0"
      ],
      "min": [
        0
      ],
      "max": [
        0
      ],
      "observations": [
        64
      ],
      "@type": "Product"
    },
    {
      "term": {
        "@type": "Term",
        "name": "Above ground crop residue, incorporated",
        "termType": "cropResidue",
        "@id": "aboveGroundCropResidueIncorporated",
        "units": "kg dry matter"
      },
      "primary": false,
      "value": [
        0
      ],
      "statsDefinition": "cycles",
      "aggregated": [
        "term",
        "statsDefinition",
        "value",
        "min",
        "max",
        "observations"
      ],
      "aggregatedVersion": [
        "0.15.0",
        "0.15.0",
        "0.15.0",
        "0.15.0",
        "0.15.0",
        "0.15.0"
      ],
      "min": [
        0
      ],
      "max": [
        0
      ],
      "observations": [
        64
      ],
      "@type": "Product"
    },
    {
      "term": {
        "@type": "Term",
        "name": "Above ground crop residue, left on field",
        "termType": "cropResidue",
        "@id": "aboveGroundCropResidueLeftOnField",
        "units": "kg dry matter"
      },
      "primary": false,
      "value": [
        8156.885427440937
      ],
      "statsDefinition": "cycles",
      "aggregated": [
        "term",
        "statsDefinition",
        "value",
        "min",
        "max",
        "observations"
      ],
      "aggregatedVersion": [
        "0.15.0",
        "0.15.0",
        "0.15.0",
        "0.15.0",
        "0.15.0",
        "0.15.0"
      ],
      "min": [
        3387.5
      ],
      "max": [
        17678.57142965
      ],
      "observations": [
        64
      ],
      "@type": "Product"
    }
  ],
  "emissions": [
    {
      "term": {
        "@type": "Term",
        "name": "NH3, to air, inputs production",
        "termType": "emission",
        "@id": "nh3ToAirInputsProduction",
        "units": "kg NH3"
      },
      "value": [
        0.08122122027915485
      ],
      "methodTier": "tier 1",
      "methodModel": {
        "@type": "Term",
        "name": "Aggregated models",
        "termType": "model",
        "@id": "aggregatedModels"
      },
      "deleted": false,
      "statsDefinition": "cycles",
      "aggregated": [
        "term",
        "statsDefinition",
        "value",
        "methodModel",
        "methodTier",
        "min",
        "max",
        "observations"
      ],
      "aggregatedVersion": [
        "0.15.0",
        "0.15.0",
        "0.15.0",
        "0.15.0",
        "0.15.0",
        "0.15.0",
        "0.15.0",
        "0.15.0"
      ],
      "min": [
        0.0004955332277388487
      ],
      "max": [
        0.8151583955429612
      ],
      "observations": [
        417
      ],
      "@type": "Emission"
    },
    {
      "term": {
        "@type": "Term",
        "name": "CO2, to air, inputs production",
        "termType": "emission",
        "@id": "co2ToAirInputsProduction",
        "units": "kg CO2"
      },
      "value": [
        208.52816513722314
      ],
      "methodTier": "tier 1",
      "methodModel": {
        "@type": "Term",
        "name": "Aggregated models",
        "termType": "model",
        "@id": "aggregatedModels"
      },
      "deleted": false,
      "statsDefinition": "cycles",
      "aggregated": [
        "term",
        "statsDefinition",
        "value",
        "methodModel",
        "methodTier",
        "min",
        "max",
        "observations"
      ],
      "aggregatedVersion": [
        "0.15.0",
        "0.15.0",
        "0.15.0",
        "0.15.0",
        "0.15.0",
        "0.15.0",
        "0.15.0",
        "0.15.0"
      ],
      "min": [
        7.9316386190640635
      ],
      "max": [
        2655.834814400069
      ],
      "observations": [
        417
      ],
      "@type": "Emission"
    },
    {
      "term": {
        "@type": "Term",
        "name": "N2O, to air, inputs production",
        "termType": "emission",
        "@id": "n2OToAirInputsProduction",
        "units": "kg N2O"
      },
      "value": [
        0.004380003966516243
      ],
      "methodTier": "tier 1",
      "methodModel": {
        "@type": "Term",
        "name": "Aggregated models",
        "termType": "model",
        "@id": "aggregatedModels"
      },
      "deleted": false,
      "statsDefinition": "cycles",
      "aggregated": [
        "term",
        "statsDefinition",
        "value",
        "methodModel",
        "methodTier",
        "min",
        "max",
        "observations"
      ],
      "aggregatedVersion": [
        "0.15.0",
        "0.15.0",
        "0.15.0",
        "0.15.0",
        "0.15.0",
        "0.15.0",
        "0.15.0",
        "0.15.0"
      ],
      "min": [
        0.0001789195921436566
      ],
      "max": [
        0.05400603678453645
      ],
      "observations": [
        417
      ],
      "@type": "Emission"
    },
    {
      "term": {
        "@type": "Term",
        "name": "CH4, to air, inputs production, fossil",
        "termType": "emission",
        "@id": "ch4ToAirInputsProductionFossil",
        "units": "kg CH4"
      },
      "value": [
        0.4446643145320105
      ],
      "methodTier": "tier 1",
      "methodModel": {
        "@type": "Term",
        "name": "Aggregated models",
        "termType": "model",
        "@id": "aggregatedModels"
      },
      "deleted": false,
      "statsDefinition": "cycles",
      "aggregated": [
        "term",
        "statsDefinition",
        "value",
        "methodModel",
        "methodTier",
        "min",
        "max",
        "observations"
      ],
      "aggregatedVersion": [
        "0.15.0",
        "0.15.0",
        "0.15.0",
        "0.15.0",
        "0.15.0",
        "0.15.0",
        "0.15.0",
        "0.15.0"
      ],
      "min": [
        0.0025582349211176266
      ],
      "max": [
        4.399930225907844
      ],
      "observations": [
        417
      ],
      "@type": "Emission"
    },
    {
      "term": {
        "@type": "Term",
        "name": "CH4, to air, inputs production, non-fossil",
        "termType": "emission",
        "@id": "ch4ToAirInputsProductionNonFossil",
        "units": "kg CH4"
      },
      "value": [
        0.005841438778352263
      ],
      "methodTier": "tier 1",
      "methodModel": {
        "@type": "Term",
        "name": "Aggregated models",
        "termType": "model",
        "@id": "aggregatedModels"
      },
      "deleted": false,
      "statsDefinition": "cycles",
      "aggregated": [
        "term",
        "statsDefinition",
        "value",
        "methodModel",
        "methodTier",
        "min",
        "max",
        "observations"
      ],
      "aggregatedVersion": [
        "0.15.0",
        "0.15.0",
        "0.15.0",
        "0.15.0",
        "0.15.0",
        "0.15.0",
        "0.15.0",
        "0.15.0"
      ],
      "min": [
        0.00012547718341528888
      ],
      "max": [
        0.16222519266144306
      ],
      "observations": [
        417
      ],
      "@type": "Emission"
    },
    {
      "term": {
        "@type": "Term",
        "name": "NOx, to air, inputs production",
        "termType": "emission",
        "@id": "noxToAirInputsProduction",
        "units": "kg NOx"
      },
      "value": [
        0.4798291945869739
      ],
      "methodTier": "tier 1",
      "methodModel": {
        "@type": "Term",
        "name": "Aggregated models",
        "termType": "model",
        "@id": "aggregatedModels"
      },
      "deleted": false,
      "statsDefinition": "cycles",
      "aggregated": [
        "term",
        "statsDefinition",
        "value",
        "methodModel",
        "methodTier",
        "min",
        "max",
        "observations"
      ],
      "aggregatedVersion": [
        "0.15.0",
        "0.15.0",
        "0.15.0",
        "0.15.0",
        "0.15.0",
        "0.15.0",
        "0.15.0",
        "0.15.0"
      ],
      "min": [
        0.005443798244338066
      ],
      "max": [
        7.313288798267193
      ],
      "observations": [
        417
      ],
      "@type": "Emission"
    },
    {
      "term": {
        "@type": "Term",
        "name": "SO2, to air, inputs production",
        "termType": "emission",
        "@id": "so2ToAirInputsProduction",
        "units": "kg SO2"
      },
      "value": [
        0.9206654174425682
      ],
      "methodTier": "tier 1",
      "methodModel": {
        "@type": "Term",
        "name": "Aggregated models",
        "termType": "model",
        "@id": "aggregatedModels"
      },
      "deleted": false,
      "statsDefinition": "cycles",
      "aggregated": [
        "term",
        "statsDefinition",
        "value",
        "methodModel",
        "methodTier",
        "min",
        "max",
        "observations"
      ],
      "aggregatedVersion": [
        "0.15.0",
        "0.15.0",
        "0.15.0",
        "0.15.0",
        "0.15.0",
        "0.15.0",
        "0.15.0",
        "0.15.0"
      ],
      "min": [
        0.004318982038629019
      ],
      "max": [
        12.387050074728618
      ],
      "observations": [
        417
      ],
      "@type": "Emission"
    },
    {
      "term": {
        "@type": "Term",
        "name": "Bromochlorodifluoromethane, to air, inputs production",
        "termType": "emission",
        "@id": "bromochlorodifluoromethaneToAirInputsProduction",
        "units": "kg CBrClF2"
      },
      "value": [
        6.106366659137097e-7
      ],
      "methodTier": "tier 1",
      "methodModel": {
        "@type": "Term",
        "name": "Aggregated models",
        "termType": "model",
        "@id": "aggregatedModels"
      },
      "deleted": false,
      "statsDefinition": "cycles",
      "aggregated": [
        "term",
        "statsDefinition",
        "value",
        "methodModel",
        "methodTier",
        "min",
        "max",
        "observations"
      ],
      "aggregatedVersion": [
        "0.15.0",
        "0.15.0",
        "0.15.0",
        "0.15.0",
        "0.15.0",
        "0.15.0",
        "0.15.0",
        "0.15.0"
      ],
      "min": [
        2.0704502287074654e-9
      ],
      "max": [
        0.000004082774005132955
      ],
      "observations": [
        417
      ],
      "@type": "Emission"
    },
    {
      "term": {
        "@type": "Term",
        "name": "Chlorodifluoromethane, to air, inputs production",
        "termType": "emission",
        "@id": "chlorodifluoromethaneToAirInputsProduction",
        "units": "kg CHClF2"
      },
      "value": [
        0.000003330871274641956
      ],
      "methodTier": "tier 1",
      "methodModel": {
        "@type": "Term",
        "name": "Aggregated models",
        "termType": "model",
        "@id": "aggregatedModels"
      },
      "deleted": false,
      "statsDefinition": "cycles",
      "aggregated": [
        "term",
        "statsDefinition",
        "value",
        "methodModel",
        "methodTier",
        "min",
        "max",
        "observations"
      ],
      "aggregatedVersion": [
        "0.15.0",
        "0.15.0",
        "0.15.0",
        "0.15.0",
        "0.15.0",
        "0.15.0",
        "0.15.0",
        "0.15.0"
      ],
      "min": [
        2.975554243672761e-8
      ],
      "max": [
        0.000017418040334165022
      ],
      "observations": [
        417
      ],
      "@type": "Emission"
    },
    {
      "term": {
        "@type": "Term",
        "name": "Dichlorodifluoromethane, to air, inputs production",
        "termType": "emission",
        "@id": "dichlorodifluoromethaneToAirInputsProduction",
        "units": "kg CCl2F2"
      },
      "value": [
        2.935372430930634e-8
      ],
      "methodTier": "tier 1",
      "methodModel": {
        "@type": "Term",
        "name": "Aggregated models",
        "termType": "model",
        "@id": "aggregatedModels"
      },
      "deleted": false,
      "statsDefinition": "cycles",
      "aggregated": [
        "term",
        "statsDefinition",
        "value",
        "methodModel",
        "methodTier",
        "min",
        "max",
        "observations"
      ],
      "aggregatedVersion": [
        "0.15.0",
        "0.15.0",
        "0.15.0",
        "0.15.0",
        "0.15.0",
        "0.15.0",
        "0.15.0",
        "0.15.0"
      ],
      "min": [
        1.778007958718836e-10
      ],
      "max": [
        7.781018682336473e-7
      ],
      "observations": [
        417
      ],
      "@type": "Emission"
    },
    {
      "term": {
        "@type": "Term",
        "name": "1,1,2-Trichlorotrifluoroethane, to air, inputs production",
        "termType": "emission",
        "@id": "112TrichlorotrifluoroethaneToAirInputsProduction",
        "units": "kg C2Cl3F3"
      },
      "value": [
        1.513745855352979e-8
      ],
      "methodTier": "tier 1",
      "methodModel": {
        "@type": "Term",
        "name": "Aggregated models",
        "termType": "model",
        "@id": "aggregatedModels"
      },
      "deleted": false,
      "statsDefinition": "cycles",
      "aggregated": [
        "term",
        "statsDefinition",
        "value",
        "methodModel",
        "methodTier",
        "min",
        "max",
        "observations"
      ],
      "aggregatedVersion": [
        "0.15.0",
        "0.15.0",
        "0.15.0",
        "0.15.0",
        "0.15.0",
        "0.15.0",
        "0.15.0",
        "0.15.0"
      ],
      "min": [
        1.1465651077678477e-10
      ],
      "max": [
        8.283998922146942e-8
      ],
      "observations": [
        417
      ],
      "@type": "Emission"
    },
    {
      "term": {
        "@type": "Term",
        "name": "1,1-Dichlorotetrafluoroethane, to air, inputs production",
        "termType": "emission",
        "@id": "11DichlorotetrafluoroethaneToAirInputsProduction",
        "units": "kg C2Cl2F4"
      },
      "value": [
        0.0000025539681109480808
      ],
      "methodTier": "tier 1",
      "methodModel": {
        "@type": "Term",
        "name": "Aggregated models",
        "termType": "model",
        "@id": "aggregatedModels"
      },
      "deleted": false,
      "statsDefinition": "cycles",
      "aggregated": [
        "term",
        "statsDefinition",
        "value",
        "methodModel",
        "methodTier",
        "min",
        "max",
        "observations"
      ],
      "aggregatedVersion": [
        "0.15.0",
        "0.15.0",
        "0.15.0",
        "0.15.0",
        "0.15.0",
        "0.15.0",
        "0.15.0",
        "0.15.0"
      ],
      "min": [
        5.686661601914575e-9
      ],
      "max": [
        0.000055347567164160306
      ],
      "observations": [
        417
      ],
      "@type": "Emission"
    },
    {
      "term": {
        "@type": "Term",
        "name": "NO3, to groundwater, crop residue decomposition",
        "termType": "emission",
        "@id": "no3ToGroundwaterCropResidueDecomposition",
        "units": "kg NO3"
      },
      "value": [
        31.7438004403901
      ],
      "methodTier": "tier 1",
      "methodModel": {
        "@type": "Term",
        "name": "Aggregated models",
        "termType": "model",
        "@id": "aggregatedModels"
      },
      "deleted": false,
      "statsDefinition": "cycles",
      "aggregated": [
        "term",
        "statsDefinition",
        "value",
        "methodModel",
        "methodTier",
        "min",
        "max",
        "observations"
      ],
      "aggregatedVersion": [
        "0.15.0",
        "0.15.0",
        "0.15.0",
        "0.15.0",
        "0.15.0",
        "0.15.0",
        "0.15.0",
        "0.15.0"
      ],
      "min": [
        11.523844514702745
      ],
      "max": [
        72.11128053440386
      ],
      "observations": [
        64
      ],
      "@type": "Emission"
    },
    {
      "term": {
        "@type": "Term",
        "name": "NO3, to groundwater, excreta",
        "termType": "emission",
        "@id": "no3ToGroundwaterExcreta",
        "units": "kg NO3"
      },
      "value": [
        0
      ],
      "methodTier": "tier 1",
      "methodModel": {
        "@type": "Term",
        "name": "Aggregated models",
        "termType": "model",
        "@id": "aggregatedModels"
      },
      "deleted": false,
      "statsDefinition": "cycles",
      "aggregated": [
        "term",
        "statsDefinition",
        "value",
        "methodModel",
        "methodTier",
        "min",
        "max",
        "observations"
      ],
      "aggregatedVersion": [
        "0.15.0",
        "0.15.0",
        "0.15.0",
        "0.15.0",
        "0.15.0",
        "0.15.0",
        "0.15.0",
        "0.15.0"
      ],
      "min": [
        0
      ],
      "max": [
        0
      ],
      "observations": [
        64
      ],
      "@type": "Emission"
    },
    {
      "term": {
        "@type": "Term",
        "name": "NO3, to groundwater, inorganic fertiliser",
        "termType": "emission",
        "@id": "no3ToGroundwaterInorganicFertiliser",
        "units": "kg NO3"
      },
      "value": [
        45.69027277550399
      ],
      "methodTier": "tier 1",
      "methodModel": {
        "@type": "Term",
        "name": "Aggregated models",
        "termType": "model",
        "@id": "aggregatedModels"
      },
      "deleted": false,
      "statsDefinition": "cycles",
      "aggregated": [
        "term",
        "statsDefinition",
        "value",
        "methodModel",
        "methodTier",
        "min",
        "max",
        "observations"
      ],
      "aggregatedVersion": [
        "0.15.0",
        "0.15.0",
        "0.15.0",
        "0.15.0",
        "0.15.0",
        "0.15.0",
        "0.15.0",
        "0.15.0"
      ],
      "min": [
        0
      ],
      "max": [
        79.79178048714562
      ],
      "observations": [
        64
      ],
      "@type": "Emission"
    },
    {
      "term": {
        "@type": "Term",
        "name": "NO3, to groundwater, organic fertiliser",
        "termType": "emission",
        "@id": "no3ToGroundwaterOrganicFertiliser",
        "units": "kg NO3"
      },
      "value": [
        0
      ],
      "methodTier": "tier 1",
      "methodModel": {
        "@type": "Term",
        "name": "Aggregated models",
        "termType": "model",
        "@id": "aggregatedModels"
      },
      "deleted": false,
      "statsDefinition": "cycles",
      "aggregated": [
        "term",
        "statsDefinition",
        "value",
        "methodModel",
        "methodTier",
        "min",
        "max",
        "observations"
      ],
      "aggregatedVersion": [
        "0.15.0",
        "0.15.0",
        "0.15.0",
        "0.15.0",
        "0.15.0",
        "0.15.0",
        "0.15.0",
        "0.15.0"
      ],
      "min": [
        0
      ],
      "max": [
        0
      ],
      "observations": [
        64
      ],
      "@type": "Emission"
    },
    {
      "term": {
        "@type": "Term",
        "name": "N2O, to air, crop residue decomposition, direct",
        "termType": "emission",
        "@id": "n2OToAirCropResidueDecompositionDirect",
        "units": "kg N2O"
      },
      "value": [
        2.1316886243993753
      ],
      "methodTier": "tier 1",
      "methodModel": {
        "@type": "Term",
        "name": "Aggregated models",
        "termType": "model",
        "@id": "aggregatedModels"
      },
      "deleted": false,
      "statsDefinition": "cycles",
      "aggregated": [
        "term",
        "statsDefinition",
        "value",
        "methodModel",
        "methodTier",
        "min",
        "max",
        "observations"
      ],
      "aggregatedVersion": [
        "0.15.0",
        "0.15.0",
        "0.15.0",
        "0.15.0",
        "0.15.0",
        "0.15.0",
        "0.15.0",
        "0.15.0"
      ],
      "min": [
        0.24463171728986516
      ],
      "max": [
        9.200572295517203
      ],
      "observations": [
        64
      ],
      "@type": "Emission"
    },
    {
      "term": {
        "@type": "Term",
        "name": "N2O, to air, excreta, direct",
        "termType": "emission",
        "@id": "n2OToAirExcretaDirect",
        "units": "kg N2O"
      },
      "value": [
        0
      ],
      "methodTier": "tier 1",
      "methodModel": {
        "@type": "Term",
        "name": "Aggregated models",
        "termType": "model",
        "@id": "aggregatedModels"
      },
      "deleted": false,
      "statsDefinition": "cycles",
      "aggregated": [
        "term",
        "statsDefinition",
        "value",
        "methodModel",
        "methodTier",
        "min",
        "max",
        "observations"
      ],
      "aggregatedVersion": [
        "0.15.0",
        "0.15.0",
        "0.15.0",
        "0.15.0",
        "0.15.0",
        "0.15.0",
        "0.15.0",
        "0.15.0"
      ],
      "min": [
        0
      ],
      "max": [
        0
      ],
      "observations": [
        64
      ],
      "@type": "Emission"
    },
    {
      "term": {
        "@type": "Term",
        "name": "N2O, to air, inorganic fertiliser, direct",
        "termType": "emission",
        "@id": "n2OToAirInorganicFertiliserDirect",
        "units": "kg N2O"
      },
      "value": [
        2.9304636139326177
      ],
      "methodTier": "tier 1",
      "methodModel": {
        "@type": "Term",
        "name": "Aggregated models",
        "termType": "model",
        "@id": "aggregatedModels"
      },
      "deleted": false,
      "statsDefinition": "cycles",
      "aggregated": [
        "term",
        "statsDefinition",
        "value",
        "methodModel",
        "methodTier",
        "min",
        "max",
        "observations"
      ],
      "aggregatedVersion": [
        "0.15.0",
        "0.15.0",
        "0.15.0",
        "0.15.0",
        "0.15.0",
        "0.15.0",
        "0.15.0",
        "0.15.0"
      ],
      "min": [
        0
      ],
      "max": [
        6.182412349849617
      ],
      "observations": [
        64
      ],
      "@type": "Emission"
    },
    {
      "term": {
        "@type": "Term",
        "name": "N2O, to air, organic fertiliser, direct",
        "termType": "emission",
        "@id": "n2OToAirOrganicFertiliserDirect",
        "units": "kg N2O"
      },
      "value": [
        0
      ],
      "methodTier": "tier 1",
      "methodModel": {
        "@type": "Term",
        "name": "Aggregated models",
        "termType": "model",
        "@id": "aggregatedModels"
      },
      "deleted": false,
      "statsDefinition": "cycles",
      "aggregated": [
        "term",
        "statsDefinition",
        "value",
        "methodModel",
        "methodTier",
        "min",
        "max",
        "observations"
      ],
      "aggregatedVersion": [
        "0.15.0",
        "0.15.0",
        "0.15.0",
        "0.15.0",
        "0.15.0",
        "0.15.0",
        "0.15.0",
        "0.15.0"
      ],
      "min": [
        0
      ],
      "max": [
        0
      ],
      "observations": [
        64
      ],
      "@type": "Emission"
    },
    {
      "term": {
        "@type": "Term",
        "name": "NOx, to air, crop residue decomposition",
        "termType": "emission",
        "@id": "noxToAirCropResidueDecomposition",
        "units": "kg NOx"
      },
      "value": [
        5.732083702919173
      ],
      "methodTier": "tier 1",
      "methodModel": {
        "@type": "Term",
        "name": "Aggregated models",
        "termType": "model",
        "@id": "aggregatedModels"
      },
      "deleted": false,
      "statsDefinition": "cycles",
      "aggregated": [
        "term",
        "statsDefinition",
        "value",
        "methodModel",
        "methodTier",
        "min",
        "max",
        "observations"
      ],
      "aggregatedVersion": [
        "0.15.0",
        "0.15.0",
        "0.15.0",
        "0.15.0",
        "0.15.0",
        "0.15.0",
        "0.15.0",
        "0.15.0"
      ],
      "min": [
        2.0808989604677075
      ],
      "max": [
        13.02137394431054
      ],
      "observations": [
        64
      ],
      "@type": "Emission"
    },
    {
      "term": {
        "@type": "Term",
        "name": "NOx, to air, excreta",
        "termType": "emission",
        "@id": "noxToAirExcreta",
        "units": "kg NOx"
      },
      "value": [
        0
      ],
      "methodTier": "tier 1",
      "methodModel": {
        "@type": "Term",
        "name": "Aggregated models",
        "termType": "model",
        "@id": "aggregatedModels"
      },
      "deleted": false,
      "statsDefinition": "cycles",
      "aggregated": [
        "term",
        "statsDefinition",
        "value",
        "methodModel",
        "methodTier",
        "min",
        "max",
        "observations"
      ],
      "aggregatedVersion": [
        "0.15.0",
        "0.15.0",
        "0.15.0",
        "0.15.0",
        "0.15.0",
        "0.15.0",
        "0.15.0",
        "0.15.0"
      ],
      "min": [
        0
      ],
      "max": [
        0
      ],
      "observations": [
        64
      ],
      "@type": "Emission"
    },
    {
      "term": {
        "@type": "Term",
        "name": "NOx, to air, inorganic fertiliser",
        "termType": "emission",
        "@id": "noxToAirInorganicFertiliser",
        "units": "kg NOx"
      },
      "value": [
        8.250444632494656
      ],
      "methodTier": "tier 1",
      "methodModel": {
        "@type": "Term",
        "name": "Aggregated models",
        "termType": "model",
        "@id": "aggregatedModels"
      },
      "deleted": false,
      "statsDefinition": "cycles",
      "aggregated": [
        "term",
        "statsDefinition",
        "value",
        "methodModel",
        "methodTier",
        "min",
        "max",
        "observations"
      ],
      "aggregatedVersion": [
        "0.15.0",
        "0.15.0",
        "0.15.0",
        "0.15.0",
        "0.15.0",
        "0.15.0",
        "0.15.0",
        "0.15.0"
      ],
      "min": [
        0
      ],
      "max": [
        14.408267384875575
      ],
      "observations": [
        64
      ],
      "@type": "Emission"
    },
    {
      "term": {
        "@type": "Term",
        "name": "NOx, to air, organic fertiliser",
        "termType": "emission",
        "@id": "noxToAirOrganicFertiliser",
        "units": "kg NOx"
      },
      "value": [
        0
      ],
      "methodTier": "tier 1",
      "methodModel": {
        "@type": "Term",
        "name": "Aggregated models",
        "termType": "model",
        "@id": "aggregatedModels"
      },
      "deleted": false,
      "statsDefinition": "cycles",
      "aggregated": [
        "term",
        "statsDefinition",
        "value",
        "methodModel",
        "methodTier",
        "min",
        "max",
        "observations"
      ],
      "aggregatedVersion": [
        "0.15.0",
        "0.15.0",
        "0.15.0",
        "0.15.0",
        "0.15.0",
        "0.15.0",
        "0.15.0",
        "0.15.0"
      ],
      "min": [
        0
      ],
      "max": [
        0
      ],
      "observations": [
        64
      ],
      "@type": "Emission"
    },
    {
      "term": {
        "@type": "Term",
        "name": "NH3, to air, crop residue decomposition",
        "termType": "emission",
        "@id": "nh3ToAirCropResidueDecomposition",
        "units": "kg NH3"
      },
      "value": [
        0
      ],
      "methodTier": "tier 1",
      "methodModel": {
        "@type": "Term",
        "name": "Aggregated models",
        "termType": "model",
        "@id": "aggregatedModels"
      },
      "deleted": false,
      "statsDefinition": "cycles",
      "aggregated": [
        "term",
        "statsDefinition",
        "value",
        "methodModel",
        "methodTier",
        "min",
        "max",
        "observations"
      ],
      "aggregatedVersion": [
        "0.15.0",
        "0.15.0",
        "0.15.0",
        "0.15.0",
        "0.15.0",
        "0.15.0",
        "0.15.0",
        "0.15.0"
      ],
      "min": [
        0
      ],
      "max": [
        0
      ],
      "observations": [
        64
      ],
      "@type": "Emission"
    },
    {
      "term": {
        "@type": "Term",
        "name": "NH3, to air, organic fertiliser",
        "termType": "emission",
        "@id": "nh3ToAirOrganicFertiliser",
        "units": "kg NH3"
      },
      "value": [
        0
      ],
      "methodTier": "tier 1",
      "methodModel": {
        "@type": "Term",
        "name": "Aggregated models",
        "termType": "model",
        "@id": "aggregatedModels"
      },
      "deleted": false,
      "statsDefinition": "cycles",
      "aggregated": [
        "term",
        "statsDefinition",
        "value",
        "methodModel",
        "methodTier",
        "min",
        "max",
        "observations"
      ],
      "aggregatedVersion": [
        "0.15.0",
        "0.15.0",
        "0.15.0",
        "0.15.0",
        "0.15.0",
        "0.15.0",
        "0.15.0",
        "0.15.0"
      ],
      "min": [
        0
      ],
      "max": [
        0
      ],
      "observations": [
        64
      ],
      "@type": "Emission"
    },
    {
      "term": {
        "@type": "Term",
        "name": "NH3, to air, inorganic fertiliser",
        "termType": "emission",
        "@id": "nh3ToAirInorganicFertiliser",
        "units": "kg NH3"
      },
      "value": [
        26.192346329931578
      ],
      "methodTier": "tier 1",
      "methodModel": {
        "@type": "Term",
        "name": "Aggregated models",
        "termType": "model",
        "@id": "aggregatedModels"
      },
      "deleted": false,
      "statsDefinition": "cycles",
      "aggregated": [
        "term",
        "statsDefinition",
        "value",
        "methodModel",
        "methodTier",
        "min",
        "max",
        "observations"
      ],
      "aggregatedVersion": [
        "0.15.0",
        "0.15.0",
        "0.15.0",
        "0.15.0",
        "0.15.0",
        "0.15.0",
        "0.15.0",
        "0.15.0"
      ],
      "min": [
        0
      ],
      "max": [
        52.651113464361
      ],
      "observations": [
        64
      ],
      "@type": "Emission"
    },
    {
      "term": {
        "@type": "Term",
        "name": "CH4, to air, crop residue burning",
        "termType": "emission",
        "@id": "ch4ToAirCropResidueBurning",
        "units": "kg CH4"
      },
      "value": [
        0
      ],
      "methodTier": "tier 1",
      "methodModel": {
        "@type": "Term",
        "name": "Aggregated models",
        "termType": "model",
        "@id": "aggregatedModels"
      },
      "deleted": false,
      "statsDefinition": "cycles",
      "aggregated": [
        "term",
        "statsDefinition",
        "value",
        "methodModel",
        "methodTier",
        "min",
        "max",
        "observations"
      ],
      "aggregatedVersion": [
        "0.15.0",
        "0.15.0",
        "0.15.0",
        "0.15.0",
        "0.15.0",
        "0.15.0",
        "0.15.0",
        "0.15.0"
      ],
      "min": [
        0
      ],
      "max": [
        0
      ],
      "observations": [
        64
      ],
      "@type": "Emission"
    },
    {
      "term": {
        "@type": "Term",
        "name": "N2O, to air, crop residue burning, direct",
        "termType": "emission",
        "@id": "n2OToAirCropResidueBurningDirect",
        "units": "kg N2O"
      },
      "value": [
        0
      ],
      "methodTier": "tier 1",
      "methodModel": {
        "@type": "Term",
        "name": "Aggregated models",
        "termType": "model",
        "@id": "aggregatedModels"
      },
      "deleted": false,
      "statsDefinition": "cycles",
      "aggregated": [
        "term",
        "statsDefinition",
        "value",
        "methodModel",
        "methodTier",
        "min",
        "max",
        "observations"
      ],
      "aggregatedVersion": [
        "0.15.0",
        "0.15.0",
        "0.15.0",
        "0.15.0",
        "0.15.0",
        "0.15.0",
        "0.15.0",
        "0.15.0"
      ],
      "min": [
        0
      ],
      "max": [
        0
      ],
      "observations": [
        64
      ],
      "@type": "Emission"
    },
    {
      "term": {
        "@type": "Term",
        "name": "NH3, to air, crop residue burning",
        "termType": "emission",
        "@id": "nh3ToAirCropResidueBurning",
        "units": "kg NH3"
      },
      "value": [
        0
      ],
      "methodTier": "tier 1",
      "methodModel": {
        "@type": "Term",
        "name": "Aggregated models",
        "termType": "model",
        "@id": "aggregatedModels"
      },
      "deleted": false,
      "statsDefinition": "cycles",
      "aggregated": [
        "term",
        "statsDefinition",
        "value",
        "methodModel",
        "methodTier",
        "min",
        "max",
        "observations"
      ],
      "aggregatedVersion": [
        "0.15.0",
        "0.15.0",
        "0.15.0",
        "0.15.0",
        "0.15.0",
        "0.15.0",
        "0.15.0",
        "0.15.0"
      ],
      "min": [
        0
      ],
      "max": [
        0
      ],
      "observations": [
        64
      ],
      "@type": "Emission"
    },
    {
      "term": {
        "@type": "Term",
        "name": "NOx, to air, crop residue burning",
        "termType": "emission",
        "@id": "noxToAirCropResidueBurning",
        "units": "kg NOx"
      },
      "value": [
        0
      ],
      "methodTier": "tier 1",
      "methodModel": {
        "@type": "Term",
        "name": "Aggregated models",
        "termType": "model",
        "@id": "aggregatedModels"
      },
      "deleted": false,
      "statsDefinition": "cycles",
      "aggregated": [
        "term",
        "statsDefinition",
        "value",
        "methodModel",
        "methodTier",
        "min",
        "max",
        "observations"
      ],
      "aggregatedVersion": [
        "0.15.0",
        "0.15.0",
        "0.15.0",
        "0.15.0",
        "0.15.0",
        "0.15.0",
        "0.15.0",
        "0.15.0"
      ],
      "min": [
        0
      ],
      "max": [
        0
      ],
      "observations": [
        64
      ],
      "@type": "Emission"
    },
    {
      "term": {
        "@type": "Term",
        "name": "CO2, to air, fuel combustion",
        "termType": "emission",
        "@id": "co2ToAirFuelCombustion",
        "units": "kg CO2"
      },
      "value": [
        155.4286573911483
      ],
      "methodTier": "tier 1",
      "methodModel": {
        "@type": "Term",
        "name": "Aggregated models",
        "termType": "model",
        "@id": "aggregatedModels"
      },
      "deleted": false,
      "statsDefinition": "cycles",
      "aggregated": [
        "term",
        "statsDefinition",
        "value",
        "methodModel",
        "methodTier",
        "min",
        "max",
        "observations"
      ],
      "aggregatedVersion": [
        "0.15.0",
        "0.15.0",
        "0.15.0",
        "0.15.0",
        "0.15.0",
        "0.15.0",
        "0.15.0",
        "0.15.0"
      ],
      "min": [
        109.42839999999998
      ],
      "max": [
        469.11953891400344
      ],
      "observations": [
        64
      ],
      "@type": "Emission"
    },
    {
      "term": {
        "@type": "Term",
        "name": "N2O, to air, fuel combustion, direct",
        "termType": "emission",
        "@id": "n2OToAirFuelCombustionDirect",
        "units": "kg N2O"
      },
      "value": [
        0.006668232619935697
      ],
      "methodTier": "tier 1",
      "methodModel": {
        "@type": "Term",
        "name": "Aggregated models",
        "termType": "model",
        "@id": "aggregatedModels"
      },
      "deleted": false,
      "statsDefinition": "cycles",
      "aggregated": [
        "term",
        "statsDefinition",
        "value",
        "methodModel",
        "methodTier",
        "min",
        "max",
        "observations"
      ],
      "aggregatedVersion": [
        "0.15.0",
        "0.15.0",
        "0.15.0",
        "0.15.0",
        "0.15.0",
        "0.15.0",
        "0.15.0",
        "0.15.0"
      ],
      "min": [
        0.0046947199999999994
      ],
      "max": [
        0.0201262641300645
      ],
      "observations": [
        64
      ],
      "@type": "Emission"
    },
    {
      "term": {
        "@type": "Term",
        "name": "NOx, to air, fuel combustion",
        "termType": "emission",
        "@id": "noxToAirFuelCombustion",
        "units": "kg NOx"
      },
      "value": [
        1.5998364864403092
      ],
      "methodTier": "tier 1",
      "methodModel": {
        "@type": "Term",
        "name": "Aggregated models",
        "termType": "model",
        "@id": "aggregatedModels"
      },
      "deleted": false,
      "statsDefinition": "cycles",
      "aggregated": [
        "term",
        "statsDefinition",
        "value",
        "methodModel",
        "methodTier",
        "min",
        "max",
        "observations"
      ],
      "aggregatedVersion": [
        "0.15.0",
        "0.15.0",
        "0.15.0",
        "0.15.0",
        "0.15.0",
        "0.15.0",
        "0.15.0",
        "0.15.0"
      ],
      "min": [
        1.12635308
      ],
      "max": [
        4.8286755316167245
      ],
      "observations": [
        64
      ],
      "@type": "Emission"
    },
    {
      "term": {
        "@type": "Term",
        "name": "SO2, to air, fuel combustion",
        "termType": "emission",
        "@id": "so2ToAirFuelCombustion",
        "units": "kg SO2"
      },
      "value": [
        0.09806224441081919
      ],
      "methodTier": "tier 1",
      "methodModel": {
        "@type": "Term",
        "name": "Aggregated models",
        "termType": "model",
        "@id": "aggregatedModels"
      },
      "deleted": false,
      "statsDefinition": "cycles",
      "aggregated": [
        "term",
        "statsDefinition",
        "value",
        "methodModel",
        "methodTier",
        "min",
        "max",
        "observations"
      ],
      "aggregatedVersion": [
        "0.15.0",
        "0.15.0",
        "0.15.0",
        "0.15.0",
        "0.15.0",
        "0.15.0",
        "0.15.0",
        "0.15.0"
      ],
      "min": [
        0.06903999999999999
      ],
      "max": [
        0.29597447250094855
      ],
      "observations": [
        64
      ],
      "@type": "Emission"
    },
    {
      "term": {
        "@type": "Term",
        "name": "N2O, to air, crop residue decomposition, indirect",
        "termType": "emission",
        "@id": "n2OToAirCropResidueDecompositionIndirect",
        "units": "kg N2O"
      },
      "value": [
        0.12653826935444756
      ],
      "methodTier": "tier 1",
      "methodModel": {
        "@type": "Term",
        "name": "Aggregated models",
        "termType": "model",
        "@id": "aggregatedModels"
      },
      "deleted": false,
      "statsDefinition": "cycles",
      "aggregated": [
        "term",
        "statsDefinition",
        "value",
        "methodModel",
        "methodTier",
        "min",
        "max",
        "observations"
      ],
      "aggregatedVersion": [
        "0.15.0",
        "0.15.0",
        "0.15.0",
        "0.15.0",
        "0.15.0",
        "0.15.0",
        "0.15.0",
        "0.15.0"
      ],
      "min": [
        0.04593675996478477
      ],
      "max": [
        0.2874525580795389
      ],
      "observations": [
        64
      ],
      "@type": "Emission"
    },
    {
      "term": {
        "@type": "Term",
        "name": "N2O, to air, excreta, indirect",
        "termType": "emission",
        "@id": "n2OToAirExcretaIndirect",
        "units": "kg N2O"
      },
      "value": [
        0
      ],
      "methodTier": "tier 1",
      "methodModel": {
        "@type": "Term",
        "name": "Aggregated models",
        "termType": "model",
        "@id": "aggregatedModels"
      },
      "deleted": false,
      "statsDefinition": "cycles",
      "aggregated": [
        "term",
        "statsDefinition",
        "value",
        "methodModel",
        "methodTier",
        "min",
        "max",
        "observations"
      ],
      "aggregatedVersion": [
        "0.15.0",
        "0.15.0",
        "0.15.0",
        "0.15.0",
        "0.15.0",
        "0.15.0",
        "0.15.0",
        "0.15.0"
      ],
      "min": [
        0
      ],
      "max": [
        0
      ],
      "observations": [
        64
      ],
      "@type": "Emission"
    },
    {
      "term": {
        "@type": "Term",
        "name": "N2O, to air, inorganic fertiliser, indirect",
        "termType": "emission",
        "@id": "n2OToAirInorganicFertiliserIndirect",
        "units": "kg N2O"
      },
      "value": [
        0.5205749576406654
      ],
      "methodTier": "tier 1",
      "methodModel": {
        "@type": "Term",
        "name": "Aggregated models",
        "termType": "model",
        "@id": "aggregatedModels"
      },
      "deleted": false,
      "statsDefinition": "cycles",
      "aggregated": [
        "term",
        "statsDefinition",
        "value",
        "methodModel",
        "methodTier",
        "min",
        "max",
        "observations"
      ],
      "aggregatedVersion": [
        "0.15.0",
        "0.15.0",
        "0.15.0",
        "0.15.0",
        "0.15.0",
        "0.15.0",
        "0.15.0",
        "0.15.0"
      ],
      "min": [
        0
      ],
      "max": [
        0.9983969064500613
      ],
      "observations": [
        64
      ],
      "@type": "Emission"
    },
    {
      "term": {
        "@type": "Term",
        "name": "N2O, to air, organic fertiliser, indirect",
        "termType": "emission",
        "@id": "n2OToAirOrganicFertiliserIndirect",
        "units": "kg N2O"
      },
      "value": [
        0
      ],
      "methodTier": "tier 1",
      "methodModel": {
        "@type": "Term",
        "name": "Aggregated models",
        "termType": "model",
        "@id": "aggregatedModels"
      },
      "deleted": false,
      "statsDefinition": "cycles",
      "aggregated": [
        "term",
        "statsDefinition",
        "value",
        "methodModel",
        "methodTier",
        "min",
        "max",
        "observations"
      ],
      "aggregatedVersion": [
        "0.15.0",
        "0.15.0",
        "0.15.0",
        "0.15.0",
        "0.15.0",
        "0.15.0",
        "0.15.0",
        "0.15.0"
      ],
      "min": [
        0
      ],
      "max": [
        0
      ],
      "observations": [
        64
      ],
      "@type": "Emission"
    },
    {
      "term": {
        "@type": "Term",
        "name": "N2O, to air, organic soil cultivation, direct",
        "termType": "emission",
        "@id": "n2OToAirOrganicSoilCultivationDirect",
        "units": "kg N2O"
      },
      "value": [
        0
      ],
      "methodTier": "tier 1",
      "methodModel": {
        "@type": "Term",
        "name": "Aggregated models",
        "termType": "model",
        "@id": "aggregatedModels"
      },
      "deleted": false,
      "statsDefinition": "cycles",
      "aggregated": [
        "term",
        "statsDefinition",
        "value",
        "methodModel",
        "methodTier",
        "min",
        "max",
        "observations"
      ],
      "aggregatedVersion": [
        "0.15.0",
        "0.15.0",
        "0.15.0",
        "0.15.0",
        "0.15.0",
        "0.15.0",
        "0.15.0",
        "0.15.0"
      ],
      "min": [
        0
      ],
      "max": [
        0
      ],
      "observations": [
        64
      ],
      "@type": "Emission"
    },
    {
      "term": {
        "@type": "Term",
        "name": "CO2, to air, organic soil cultivation",
        "termType": "emission",
        "@id": "co2ToAirOrganicSoilCultivation",
        "units": "kg CO2"
      },
      "value": [
        0
      ],
      "methodTier": "tier 1",
      "methodModel": {
        "@type": "Term",
        "name": "Aggregated models",
        "termType": "model",
        "@id": "aggregatedModels"
      },
      "deleted": false,
      "statsDefinition": "cycles",
      "aggregated": [
        "term",
        "statsDefinition",
        "value",
        "methodModel",
        "methodTier",
        "min",
        "max",
        "observations"
      ],
      "aggregatedVersion": [
        "0.15.0",
        "0.15.0",
        "0.15.0",
        "0.15.0",
        "0.15.0",
        "0.15.0",
        "0.15.0",
        "0.15.0"
      ],
      "min": [
        0
      ],
      "max": [
        0
      ],
      "observations": [
        64
      ],
      "@type": "Emission"
    },
    {
      "term": {
        "@type": "Term",
        "name": "CO2, to air, soil organic carbon stock change, land use change",
        "termType": "emission",
        "@id": "co2ToAirSoilOrganicCarbonStockChangeLandUseChange",
        "units": "kg CO2"
      },
      "value": [
        0
      ],
      "methodTier": "tier 1",
      "methodModel": {
        "@type": "Term",
        "name": "Aggregated models",
        "termType": "model",
        "@id": "aggregatedModels"
      },
      "deleted": false,
      "statsDefinition": "cycles",
      "aggregated": [
        "term",
        "statsDefinition",
        "value",
        "methodModel",
        "methodTier",
        "min",
        "max",
        "observations"
      ],
      "aggregatedVersion": [
        "0.15.0",
        "0.15.0",
        "0.15.0",
        "0.15.0",
        "0.15.0",
        "0.15.0",
        "0.15.0",
        "0.15.0"
      ],
      "min": [
        0
      ],
      "max": [
        0
      ],
      "observations": [
        64
      ],
      "@type": "Emission"
    },
    {
      "term": {
        "@type": "Term",
        "name": "CH4, to air, natural vegetation burning",
        "termType": "emission",
        "@id": "ch4ToAirNaturalVegetationBurning",
        "units": "kg CH4"
      },
      "value": [
        0
      ],
      "methodTier": "tier 1",
      "methodModel": {
        "@type": "Term",
        "name": "Aggregated models",
        "termType": "model",
        "@id": "aggregatedModels"
      },
      "deleted": false,
      "statsDefinition": "cycles",
      "aggregated": [
        "term",
        "statsDefinition",
        "value",
        "methodModel",
        "methodTier",
        "min",
        "max",
        "observations"
      ],
      "aggregatedVersion": [
        "0.15.0",
        "0.15.0",
        "0.15.0",
        "0.15.0",
        "0.15.0",
        "0.15.0",
        "0.15.0",
        "0.15.0"
      ],
      "min": [
        0
      ],
      "max": [
        0
      ],
      "observations": [
        64
      ],
      "@type": "Emission"
    },
    {
      "term": {
        "@type": "Term",
        "name": "N2O, to air, natural vegetation burning, direct",
        "termType": "emission",
        "@id": "n2OToAirNaturalVegetationBurningDirect",
        "units": "kg N2O"
      },
      "value": [
        0
      ],
      "methodTier": "tier 1",
      "methodModel": {
        "@type": "Term",
        "name": "Aggregated models",
        "termType": "model",
        "@id": "aggregatedModels"
      },
      "deleted": false,
      "statsDefinition": "cycles",
      "aggregated": [
        "term",
        "statsDefinition",
        "value",
        "methodModel",
        "methodTier",
        "min",
        "max",
        "observations"
      ],
      "aggregatedVersion": [
        "0.15.0",
        "0.15.0",
        "0.15.0",
        "0.15.0",
        "0.15.0",
        "0.15.0",
        "0.15.0",
        "0.15.0"
      ],
      "min": [
        0
      ],
      "max": [
        0
      ],
      "observations": [
        64
      ],
      "@type": "Emission"
    },
    {
      "term": {
        "@type": "Term",
        "name": "CO2, to air, urea hydrolysis",
        "termType": "emission",
        "@id": "co2ToAirUreaHydrolysis",
        "units": "kg CO2"
      },
      "value": [
        199.8526798733127
      ],
      "methodTier": "tier 1",
      "methodModel": {
        "@type": "Term",
        "name": "Aggregated models",
        "termType": "model",
        "@id": "aggregatedModels"
      },
      "deleted": false,
      "statsDefinition": "cycles",
      "aggregated": [
        "term",
        "statsDefinition",
        "value",
        "methodModel",
        "methodTier",
        "min",
        "max",
        "observations"
      ],
      "aggregatedVersion": [
        "0.15.0",
        "0.15.0",
        "0.15.0",
        "0.15.0",
        "0.15.0",
        "0.15.0",
        "0.15.0",
        "0.15.0"
      ],
      "min": [
        0
      ],
      "max": [
        360.10052170402196
      ],
      "observations": [
        64
      ],
      "@type": "Emission"
    },
    {
      "term": {
        "@type": "Term",
        "name": "N, to surface water, aquaculture systems",
        "termType": "emission",
        "@id": "nToSurfaceWaterAquacultureSystems",
        "units": "kg N"
      },
      "value": [
        0
      ],
      "methodTier": "tier 1",
      "methodModel": {
        "@type": "Term",
        "name": "Aggregated models",
        "termType": "model",
        "@id": "aggregatedModels"
      },
      "deleted": false,
      "statsDefinition": "cycles",
      "aggregated": [
        "term",
        "statsDefinition",
        "value",
        "methodModel",
        "methodTier",
        "min",
        "max",
        "observations"
      ],
      "aggregatedVersion": [
        "0.15.0",
        "0.15.0",
        "0.15.0",
        "0.15.0",
        "0.15.0",
        "0.15.0",
        "0.15.0",
        "0.15.0"
      ],
      "min": [
        0
      ],
      "max": [
        0
      ],
      "observations": [
        64
      ],
      "@type": "Emission"
    },
    {
      "term": {
        "@type": "Term",
        "name": "N2, to air, aquaculture systems",
        "termType": "emission",
        "@id": "n2ToAirAquacultureSystems",
        "units": "kg N2"
      },
      "value": [
        0
      ],
      "methodTier": "tier 1",
      "methodModel": {
        "@type": "Term",
        "name": "Aggregated models",
        "termType": "model",
        "@id": "aggregatedModels"
      },
      "deleted": false,
      "statsDefinition": "cycles",
      "aggregated": [
        "term",
        "statsDefinition",
        "value",
        "methodModel",
        "methodTier",
        "min",
        "max",
        "observations"
      ],
      "aggregatedVersion": [
        "0.15.0",
        "0.15.0",
        "0.15.0",
        "0.15.0",
        "0.15.0",
        "0.15.0",
        "0.15.0",
        "0.15.0"
      ],
      "min": [
        0
      ],
      "max": [
        0
      ],
      "observations": [
        64
      ],
      "@type": "Emission"
    },
    {
      "term": {
        "@type": "Term",
        "name": "N2O, to air, aquaculture systems, direct",
        "termType": "emission",
        "@id": "n2OToAirAquacultureSystemsDirect",
        "units": "kg N2O"
      },
      "value": [
        0
      ],
      "methodTier": "tier 1",
      "methodModel": {
        "@type": "Term",
        "name": "Aggregated models",
        "termType": "model",
        "@id": "aggregatedModels"
      },
      "deleted": false,
      "statsDefinition": "cycles",
      "aggregated": [
        "term",
        "statsDefinition",
        "value",
        "methodModel",
        "methodTier",
        "min",
        "max",
        "observations"
      ],
      "aggregatedVersion": [
        "0.15.0",
        "0.15.0",
        "0.15.0",
        "0.15.0",
        "0.15.0",
        "0.15.0",
        "0.15.0",
        "0.15.0"
      ],
      "min": [
        0
      ],
      "max": [
        0
      ],
      "observations": [
        64
      ],
      "@type": "Emission"
    },
    {
      "term": {
        "@type": "Term",
        "name": "NOx, to air, aquaculture systems",
        "termType": "emission",
        "@id": "noxToAirAquacultureSystems",
        "units": "kg NOx"
      },
      "value": [
        0
      ],
      "methodTier": "tier 1",
      "methodModel": {
        "@type": "Term",
        "name": "Aggregated models",
        "termType": "model",
        "@id": "aggregatedModels"
      },
      "deleted": false,
      "statsDefinition": "cycles",
      "aggregated": [
        "term",
        "statsDefinition",
        "value",
        "methodModel",
        "methodTier",
        "min",
        "max",
        "observations"
      ],
      "aggregatedVersion": [
        "0.15.0",
        "0.15.0",
        "0.15.0",
        "0.15.0",
        "0.15.0",
        "0.15.0",
        "0.15.0",
        "0.15.0"
      ],
      "min": [
        0
      ],
      "max": [
        0
      ],
      "observations": [
        64
      ],
      "@type": "Emission"
    },
    {
      "term": {
        "@type": "Term",
        "name": "CH4, to air, flooded rice",
        "termType": "emission",
        "@id": "ch4ToAirFloodedRice",
        "units": "kg CH4"
      },
      "value": [
        0
      ],
      "methodTier": "tier 1",
      "methodModel": {
        "@type": "Term",
        "name": "Aggregated models",
        "termType": "model",
        "@id": "aggregatedModels"
      },
      "deleted": false,
      "statsDefinition": "cycles",
      "aggregated": [
        "term",
        "statsDefinition",
        "value",
        "methodModel",
        "methodTier",
        "min",
        "max",
        "observations"
      ],
      "aggregatedVersion": [
        "0.15.0",
        "0.15.0",
        "0.15.0",
        "0.15.0",
        "0.15.0",
        "0.15.0",
        "0.15.0",
        "0.15.0"
      ],
      "min": [
        0
      ],
      "max": [
        0
      ],
      "observations": [
        64
      ],
      "@type": "Emission"
    },
    {
      "term": {
        "@type": "Term",
        "name": "P, to surface water, aquaculture systems",
        "termType": "emission",
        "@id": "pToSurfaceWaterAquacultureSystems",
        "units": "kg P"
      },
      "value": [
        0
      ],
      "methodTier": "tier 1",
      "methodModel": {
        "@type": "Term",
        "name": "Aggregated models",
        "termType": "model",
        "@id": "aggregatedModels"
      },
      "deleted": false,
      "statsDefinition": "cycles",
      "aggregated": [
        "term",
        "statsDefinition",
        "value",
        "methodModel",
        "methodTier",
        "min",
        "max",
        "observations"
      ],
      "aggregatedVersion": [
        "0.15.0",
        "0.15.0",
        "0.15.0",
        "0.15.0",
        "0.15.0",
        "0.15.0",
        "0.15.0",
        "0.15.0"
      ],
      "min": [
        0
      ],
      "max": [
        0
      ],
      "observations": [
        64
      ],
      "@type": "Emission"
    },
    {
      "term": {
        "@type": "Term",
        "name": "CH4, to air, enteric fermentation",
        "termType": "emission",
        "@id": "ch4ToAirEntericFermentation",
        "units": "kg CH4"
      },
      "value": [
        0
      ],
      "methodTier": "tier 1",
      "methodModel": {
        "@type": "Term",
        "name": "Aggregated models",
        "termType": "model",
        "@id": "aggregatedModels"
      },
      "deleted": false,
      "statsDefinition": "cycles",
      "aggregated": [
        "term",
        "statsDefinition",
        "value",
        "methodModel",
        "methodTier",
        "min",
        "max",
        "observations"
      ],
      "aggregatedVersion": [
        "0.15.0",
        "0.15.0",
        "0.15.0",
        "0.15.0",
        "0.15.0",
        "0.15.0",
        "0.15.0",
        "0.15.0"
      ],
      "min": [
        0
      ],
      "max": [
        0
      ],
      "observations": [
        64
      ],
      "@type": "Emission"
    },
    {
      "term": {
        "@type": "Term",
        "name": "NO3, to surface water, aquaculture systems",
        "termType": "emission",
        "@id": "no3ToSurfaceWaterAquacultureSystems",
        "units": "kg NO3"
      },
      "value": [
        0
      ],
      "methodTier": "tier 1",
      "methodModel": {
        "@type": "Term",
        "name": "Aggregated models",
        "termType": "model",
        "@id": "aggregatedModels"
      },
      "deleted": false,
      "statsDefinition": "cycles",
      "aggregated": [
        "term",
        "statsDefinition",
        "value",
        "methodModel",
        "methodTier",
        "min",
        "max",
        "observations"
      ],
      "aggregatedVersion": [
        "0.15.0",
        "0.15.0",
        "0.15.0",
        "0.15.0",
        "0.15.0",
        "0.15.0",
        "0.15.0",
        "0.15.0"
      ],
      "min": [
        0
      ],
      "max": [
        0
      ],
      "observations": [
        64
      ],
      "@type": "Emission"
    },
    {
      "term": {
        "@type": "Term",
        "name": "NH3, to air, aquaculture systems",
        "termType": "emission",
        "@id": "nh3ToAirAquacultureSystems",
        "units": "kg NH3"
      },
      "value": [
        0
      ],
      "methodTier": "tier 1",
      "methodModel": {
        "@type": "Term",
        "name": "Aggregated models",
        "termType": "model",
        "@id": "aggregatedModels"
      },
      "deleted": false,
      "statsDefinition": "cycles",
      "aggregated": [
        "term",
        "statsDefinition",
        "value",
        "methodModel",
        "methodTier",
        "min",
        "max",
        "observations"
      ],
      "aggregatedVersion": [
        "0.15.0",
        "0.15.0",
        "0.15.0",
        "0.15.0",
        "0.15.0",
        "0.15.0",
        "0.15.0",
        "0.15.0"
      ],
      "min": [
        0
      ],
      "max": [
        0
      ],
      "observations": [
        64
      ],
      "@type": "Emission"
    },
    {
      "term": {
        "@type": "Term",
        "name": "N2O, to air, aquaculture systems, indirect",
        "termType": "emission",
        "@id": "n2OToAirAquacultureSystemsIndirect",
        "units": "kg N2O"
      },
      "value": [
        0
      ],
      "methodTier": "tier 1",
      "methodModel": {
        "@type": "Term",
        "name": "Aggregated models",
        "termType": "model",
        "@id": "aggregatedModels"
      },
      "deleted": false,
      "statsDefinition": "cycles",
      "aggregated": [
        "term",
        "statsDefinition",
        "value",
        "methodModel",
        "methodTier",
        "min",
        "max",
        "observations"
      ],
      "aggregatedVersion": [
        "0.15.0",
        "0.15.0",
        "0.15.0",
        "0.15.0",
        "0.15.0",
        "0.15.0",
        "0.15.0",
        "0.15.0"
      ],
      "min": [
        0
      ],
      "max": [
        0
      ],
      "observations": [
        64
      ],
      "@type": "Emission"
    },
    {
      "term": {
        "@type": "Term",
        "name": "CH4, to air, aquaculture systems",
        "termType": "emission",
        "@id": "ch4ToAirAquacultureSystems",
        "units": "kg CH4"
      },
      "value": [
        0
      ],
      "methodTier": "tier 1",
      "methodModel": {
        "@type": "Term",
        "name": "Aggregated models",
        "termType": "model",
        "@id": "aggregatedModels"
      },
      "deleted": false,
      "statsDefinition": "cycles",
      "aggregated": [
        "term",
        "statsDefinition",
        "value",
        "methodModel",
        "methodTier",
        "min",
        "max",
        "observations"
      ],
      "aggregatedVersion": [
        "0.15.0",
        "0.15.0",
        "0.15.0",
        "0.15.0",
        "0.15.0",
        "0.15.0",
        "0.15.0",
        "0.15.0"
      ],
      "min": [
        0
      ],
      "max": [
        0
      ],
      "observations": [
        64
      ],
      "@type": "Emission"
    },
    {
      "term": {
        "@type": "Term",
        "name": "P, to drainage water, inputs production",
        "termType": "emission",
        "@id": "pToDrainageWaterInputsProduction",
        "units": "kg P"
      },
      "value": [
        0.00004866517824725869
      ],
      "methodTier": "tier 1",
      "methodModel": {
        "@type": "Term",
        "name": "Aggregated models",
        "termType": "model",
        "@id": "aggregatedModels"
      },
      "deleted": false,
      "statsDefinition": "cycles",
      "aggregated": [
        "term",
        "statsDefinition",
        "value",
        "methodModel",
        "methodTier",
        "min",
        "max",
        "observations"
      ],
      "aggregatedVersion": [
        "0.15.0",
        "0.15.0",
        "0.15.0",
        "0.15.0",
        "0.15.0",
        "0.15.0",
        "0.15.0",
        "0.15.0"
      ],
      "min": [
        0.000015053330874097943
      ],
      "max": [
        0.00018816663592622428
      ],
      "observations": [
        33
      ],
      "@type": "Emission"
    },
    {
      "term": {
        "@type": "Term",
        "name": "P, to groundwater, inputs production",
        "termType": "emission",
        "@id": "pToGroundwaterInputsProduction",
        "units": "kg P"
      },
      "value": [
        0.000012184185461978644
      ],
      "methodTier": "tier 1",
      "methodModel": {
        "@type": "Term",
        "name": "Aggregated models",
        "termType": "model",
        "@id": "aggregatedModels"
      },
      "deleted": false,
      "statsDefinition": "cycles",
      "aggregated": [
        "term",
        "statsDefinition",
        "value",
        "methodModel",
        "methodTier",
        "min",
        "max",
        "observations"
      ],
      "aggregatedVersion": [
        "0.15.0",
        "0.15.0",
        "0.15.0",
        "0.15.0",
        "0.15.0",
        "0.15.0",
        "0.15.0",
        "0.15.0"
      ],
      "min": [
        0.000003768866811884534
      ],
      "max": [
        0.000047110835148556676
      ],
      "observations": [
        33
      ],
      "@type": "Emission"
    },
    {
      "term": {
        "@type": "Term",
        "name": "P, to surface water, inputs production",
        "termType": "emission",
        "@id": "pToSurfaceWaterInputsProduction",
        "units": "kg P"
      },
      "value": [
        0
      ],
      "methodTier": "tier 1",
      "methodModel": {
        "@type": "Term",
        "name": "Aggregated models",
        "termType": "model",
        "@id": "aggregatedModels"
      },
      "deleted": false,
      "statsDefinition": "cycles",
      "aggregated": [
        "term",
        "statsDefinition",
        "value",
        "methodModel",
        "methodTier",
        "min",
        "max",
        "observations"
      ],
      "aggregatedVersion": [
        "0.15.0",
        "0.15.0",
        "0.15.0",
        "0.15.0",
        "0.15.0",
        "0.15.0",
        "0.15.0",
        "0.15.0"
      ],
      "min": [
        0
      ],
      "max": [
        0
      ],
      "observations": [
        33
      ],
      "@type": "Emission"
    },
    {
      "term": {
        "@type": "Term",
        "name": "N, erosion, inputs production",
        "termType": "emission",
        "@id": "nErosionInputsProduction",
        "units": "kg N"
      },
      "value": [
        0.0001467078906924694
      ],
      "methodTier": "tier 1",
      "methodModel": {
        "@type": "Term",
        "name": "Aggregated models",
        "termType": "model",
        "@id": "aggregatedModels"
      },
      "deleted": false,
      "statsDefinition": "cycles",
      "aggregated": [
        "term",
        "statsDefinition",
        "value",
        "methodModel",
        "methodTier",
        "min",
        "max",
        "observations"
      ],
      "aggregatedVersion": [
        "0.15.0",
        "0.15.0",
        "0.15.0",
        "0.15.0",
        "0.15.0",
        "0.15.0",
        "0.15.0",
        "0.15.0"
      ],
      "min": [
        0.00004538034175512625
      ],
      "max": [
        0.0005672542719390781
      ],
      "observations": [
        33
      ],
      "@type": "Emission"
    },
    {
      "term": {
        "@type": "Term",
        "name": "P, erosion, inputs production",
        "termType": "emission",
        "@id": "pErosionInputsProduction",
        "units": "kg P"
      },
      "value": [
        0.000007584652793567052
      ],
      "methodTier": "tier 1",
      "methodModel": {
        "@type": "Term",
        "name": "Aggregated models",
        "termType": "model",
        "@id": "aggregatedModels"
      },
      "deleted": false,
      "statsDefinition": "cycles",
      "aggregated": [
        "term",
        "statsDefinition",
        "value",
        "methodModel",
        "methodTier",
        "min",
        "max",
        "observations"
      ],
      "aggregatedVersion": [
        "0.15.0",
        "0.15.0",
        "0.15.0",
        "0.15.0",
        "0.15.0",
        "0.15.0",
        "0.15.0",
        "0.15.0"
      ],
      "min": [
        0.0000023461187686731127
      ],
      "max": [
        0.000029326484608413907
      ],
      "observations": [
        33
      ],
      "@type": "Emission"
    },
    {
      "term": {
        "@type": "Term",
        "name": "NO3, to groundwater, inputs production",
        "termType": "emission",
        "@id": "no3ToGroundwaterInputsProduction",
        "units": "kg NO3"
      },
      "value": [
        0
      ],
      "methodTier": "tier 1",
      "methodModel": {
        "@type": "Term",
        "name": "Aggregated models",
        "termType": "model",
        "@id": "aggregatedModels"
      },
      "deleted": false,
      "statsDefinition": "cycles",
      "aggregated": [
        "term",
        "statsDefinition",
        "value",
        "methodModel",
        "methodTier",
        "min",
        "max",
        "observations"
      ],
      "aggregatedVersion": [
        "0.15.0",
        "0.15.0",
        "0.15.0",
        "0.15.0",
        "0.15.0",
        "0.15.0",
        "0.15.0",
        "0.15.0"
      ],
      "min": [
        0
      ],
      "max": [
        0
      ],
      "observations": [
        33
      ],
      "@type": "Emission"
    },
    {
      "term": {
        "@type": "Term",
        "name": "NH4, to groundwater, inputs production",
        "termType": "emission",
        "@id": "nh4ToGroundwaterInputsProduction",
        "units": "kg NH4"
      },
      "value": [
        0
      ],
      "methodTier": "tier 1",
      "methodModel": {
        "@type": "Term",
        "name": "Aggregated models",
        "termType": "model",
        "@id": "aggregatedModels"
      },
      "deleted": false,
      "statsDefinition": "cycles",
      "aggregated": [
        "term",
        "statsDefinition",
        "value",
        "methodModel",
        "methodTier",
        "min",
        "max",
        "observations"
      ],
      "aggregatedVersion": [
        "0.15.0",
        "0.15.0",
        "0.15.0",
        "0.15.0",
        "0.15.0",
        "0.15.0",
        "0.15.0",
        "0.15.0"
      ],
      "min": [
        0
      ],
      "max": [
        0
      ],
      "observations": [
        33
      ],
      "@type": "Emission"
    },
    {
      "term": {
        "@type": "Term",
        "name": "N, to surface water, inputs production",
        "termType": "emission",
        "@id": "nToSurfaceWaterInputsProduction",
        "units": "kg N"
      },
      "value": [
        0
      ],
      "methodTier": "tier 1",
      "methodModel": {
        "@type": "Term",
        "name": "Aggregated models",
        "termType": "model",
        "@id": "aggregatedModels"
      },
      "deleted": false,
      "statsDefinition": "cycles",
      "aggregated": [
        "term",
        "statsDefinition",
        "value",
        "methodModel",
        "methodTier",
        "min",
        "max",
        "observations"
      ],
      "aggregatedVersion": [
        "0.15.0",
        "0.15.0",
        "0.15.0",
        "0.15.0",
        "0.15.0",
        "0.15.0",
        "0.15.0",
        "0.15.0"
      ],
      "min": [
        0
      ],
      "max": [
        0
      ],
      "observations": [
        33
      ],
      "@type": "Emission"
    }
  ],
  "numberOfCycles": 64,
  "name": "Sugarcane, stalk - India - 2010-2019",
  "dataPrivate": true,
  "cycleDuration": 365
}
