{
  "@type": "Completeness",
  "waste": true,
  "electricityFuel": true,
  "material": false,
  "fertiliser": true,
  "water": true,
  "cropResidue": true,
  "excreta": true,
  "animalFeed": false,
  "transport": false,
  "seed": true,
  "pesticideVeterinaryDrug": true,
  "liveAnimalInput": true,
  "operation": true,
  "soilAmendment": true,
  "product": true,
  "otherChemical": false,
  "freshForage": false,
  "ingredient": false,
  "animalPopulation": false
}
